,District,Market,Commodity,Variety,Min-Price,Max-Price,Modal-Price,Report_Date
0,Kurnool,Kurnool,Ajwan,Other,3536,17676,10612,23 Jul 2021
1,Kurnool,Kurnool,Ajwan,Other,4162,20808,12500,20 Jul 2021
2,Kurnool,Kurnool,Ajwan,Other,4160,20799,12412,16 Jul 2021
3,Kurnool,Kurnool,Ajwan,Other,4218,21089,12642,13 Jul 2021
4,Kurnool,Kurnool,Ajwan,Other,4221,21102,12900,06 Jul 2021
5,Kurnool,Kurnool,Ajwan,Other,4311,21555,12399,02 Jul 2021
6,Kurnool,Kurnool,Ajwan,Other,3900,15616,10877,29 Jun 2021
7,Kurnool,Kurnool,Ajwan,Other,3812,19060,13332,25 Jun 2021
8,Kurnool,Kurnool,Ajwan,Other,4179,20892,11669,22 Jun 2021
9,Kurnool,Kurnool,Ajwan,Other,3684,18418,12440,18 Jun 2021
10,Kurnool,Kurnool,Ajwan,Other,4363,21812,13219,15 Jun 2021
11,Kurnool,Kurnool,Ajwan,Other,3334,16668,10668,11 Jun 2021
12,Kurnool,Kurnool,Ajwan,Other,4488,22440,13250,08 Jun 2021
13,Kurnool,Kurnool,Ajwan,Other,3889,19442,10782,04 Jun 2021
14,Kurnool,Kurnool,Ajwan,Other,4205,21022,12800,01 Jun 2021
15,Kurnool,Kurnool,Ajwan,Other,3778,18888,9740,28 May 2021
16,Kurnool,Kurnool,Ajwan,Other,5022,19292,11200,25 May 2021
17,Kurnool,Kurnool,Ajwan,Other,4179,20892,10710,04 May 2021
18,Kurnool,Kurnool,Ajwan,Other,4323,21612,10140,30 Apr 2021
19,Kurnool,Kurnool,Ajwan,Other,3689,18442,12900,26 Apr 2021
20,Kurnool,Kurnool,Ajwan,Other,4334,21668,12899,22 Apr 2021
21,Kurnool,Kurnool,Ajwan,Other,4660,23300,12400,20 Apr 2021
22,Kurnool,Kurnool,Ajwan,Other,4560,22800,6330,19 Apr 2021
23,Kurnool,Kurnool,Ajwan,Other,4111,20555,12910,16 Apr 2021
24,Kurnool,Kurnool,Ajwan,Other,3660,18299,10112,07 Apr 2021
25,Kurnool,Kurnool,Ajwan,Other,5052,25260,12064,25 Mar 2021
26,Kurnool,Kurnool,Ajwan,Other,4845,24222,12799,24 Mar 2021
27,Kurnool,Kurnool,Ajwan,Other,4802,24010,18200,23 Mar 2021
28,Kurnool,Kurnool,Ajwan,Other,5054,25266,11600,19 Mar 2021
29,Kurnool,Kurnool,Ajwan,Other,5200,26000,12599,18 Mar 2021
30,Kurnool,Kurnool,Ajwan,Other,4734,23666,12699,17 Mar 2021
31,Kurnool,Kurnool,Ajwan,Other,4640,23200,11439,16 Mar 2021
32,Kurnool,Kurnool,Ajwan,Other,4582,22908,12199,15 Mar 2021
33,Kurnool,Kurnool,Ajwan,Other,4445,22222,16519,12 Mar 2021
34,Kurnool,Kurnool,Ajwan,Other,4623,23112,16910,08 Mar 2021
35,Kurnool,Kurnool,Ajwan,Other,4624,23116,13099,04 Mar 2021
36,Kurnool,Kurnool,Ajwan,Other,4428,22140,10140,03 Mar 2021
37,Kurnool,Kurnool,Ajwan,Other,4578,22888,12099,02 Mar 2021
38,Kurnool,Kurnool,Ajwan,Other,4730,23648,11980,01 Mar 2021
39,Kurnool,Kurnool,Ajwan,Other,5031,25151,18818,25 Feb 2021
40,Kurnool,Kurnool,Ajwan,Other,4818,24088,17266,24 Feb 2021
41,Kurnool,Kurnool,Ajwan,Other,4773,23862,14299,23 Feb 2021
42,Kurnool,Kurnool,Ajwan,Other,5138,25686,15333,19 Feb 2021
43,Kurnool,Kurnool,Ajwan,Other,5324,26618,15199,18 Feb 2021
44,Kurnool,Kurnool,Ajwan,Other,5534,27666,14380,17 Feb 2021
45,Kurnool,Kurnool,Ajwan,Other,5616,28080,14988,16 Feb 2021
46,Kurnool,Kurnool,Ajwan,Other,5454,27268,14151,15 Feb 2021
47,Kurnool,Kurnool,Ajwan,Other,5616,28080,15288,10 Feb 2021
48,Kurnool,Kurnool,Ajwan,Other,5522,27609,14242,09 Feb 2021
49,Kurnool,Kurnool,Ajwan,Other,5404,27018,14412,08 Feb 2021
50,Kurnool,Kurnool,Ajwan,Other,5240,26200,12862,05 Feb 2021
51,Kurnool,Kurnool,Ajwan,Other,5120,25599,12769,04 Feb 2021
52,Kurnool,Kurnool,Ajwan,Other,5160,25800,12440,03 Feb 2021
53,Kurnool,Kurnool,Ajwan,Other,5111,25555,12892,02 Feb 2021
54,Kurnool,Kurnool,Ajwan,Other,4822,24108,13642,01 Feb 2021
55,Kurnool,Kurnool,Ajwan,Other,3842,19206,10600,30 Jan 2021
56,Kurnool,Kurnool,Ajwan,Other,4620,23100,12929,29 Jan 2021
57,Kurnool,Kurnool,Ajwan,Other,4205,21022,12700,28 Jan 2021
58,Kurnool,Kurnool,Ajwan,Other,3778,18888,11540,27 Jan 2021
59,Kurnool,Kurnool,Ajwan,Other,3574,17866,9916,25 Jan 2021
60,Kurnool,Kurnool,Ajwan,Other,3382,16906,9300,22 Jan 2021
61,Kurnool,Kurnool,Ajwan,Other,3214,16066,9680,21 Jan 2021
62,Kurnool,Kurnool,Ajwan,Other,3164,15816,9500,19 Jan 2021
63,Kurnool,Kurnool,Ajwan,Other,6000,16016,10240,18 Jan 2021
64,Kurnool,Kurnool,Ajwan,Other,11520,13069,11520,12 Jan 2021
65,Kurnool,Kurnool,Ajwan,Other,3200,15999,12844,08 Jan 2021
66,Kurnool,Kurnool,Ajwan,Other,9050,16509,13302,05 Jan 2021
67,Kurnool,Kurnool,Ajwan,Other,2814,14069,9080,29 Dec 2020
68,Kurnool,Kurnool,Ajwan,Other,2684,13418,12618,22 Dec 2020
69,Kurnool,Kurnool,Ajwan,Other,7560,12860,9140,18 Dec 2020
70,Kurnool,Kurnool,Ajwan,Other,6140,14460,11240,15 Dec 2020
71,Kurnool,Kurnool,Ajwan,Other,10450,15259,12525,11 Dec 2020
72,Kurnool,Kurnool,Ajwan,Other,7008,15333,13030,04 Dec 2020
73,Kurnool,Kurnool,Ajwan,Other,10012,15512,11262,01 Dec 2020
74,Kurnool,Kurnool,Ajwan,Other,11812,14580,12612,27 Nov 2020
75,Kurnool,Kurnool,Ajwan,Other,6000,15099,8200,24 Nov 2020
76,Kurnool,Kurnool,Ajwan,Other,8500,14400,12680,20 Nov 2020
77,Kurnool,Kurnool,Ajwan,Other,8500,16660,12040,17 Nov 2020
78,Kurnool,Kurnool,Ajwan,Other,8500,14702,9112,13 Nov 2020
79,Kurnool,Kurnool,Ajwan,Other,7440,15512,10140,10 Nov 2020
80,Kurnool,Kurnool,Ajwan,Other,6500,15660,8250,06 Nov 2020
81,Kurnool,Kurnool,Ajwan,Other,7140,16099,13600,03 Nov 2020
82,Kurnool,Kurnool,Ajwan,Other,11699,14448,12500,27 Oct 2020
83,Kurnool,Kurnool,Ajwan,Other,3101,15502,9269,20 Oct 2020
84,Kurnool,Kurnool,Ajwan,Other,9062,15440,11480,13 Oct 2020
85,Kurnool,Kurnool,Ajwan,Other,3136,15680,11440,09 Oct 2020
86,Kurnool,Kurnool,Ajwan,Other,3658,18288,11280,06 Oct 2020
87,Kurnool,Kurnool,Ajwan,Other,4011,16242,13899,29 Sep 2020
88,Kurnool,Kurnool,Ajwan,Other,5000,17292,12040,25 Sep 2020
89,Kurnool,Kurnool,Ajwan,Other,4112,18888,12169,22 Sep 2020
90,Kurnool,Kurnool,Ajwan,Other,5169,18612,14199,21 Sep 2020
91,Kurnool,Kurnool,Ajwan,Other,5169,18612,14199,18 Sep 2020
92,Kurnool,Kurnool,Ajwan,Other,3839,19194,15069,15 Sep 2020
93,Kurnool,Kurnool,Ajwan,Other,5205,18860,12666,11 Sep 2020
94,Kurnool,Kurnool,Ajwan,Other,4700,20222,14069,08 Sep 2020
95,Kurnool,Kurnool,Ajwan,Other,3657,18282,13779,04 Sep 2020
96,Kurnool,Kurnool,Ajwan,Other,3800,18590,16400,01 Sep 2020
97,Kurnool,Kurnool,Ajwan,Other,3629,18142,15433,28 Aug 2020
98,Kurnool,Kurnool,Ajwan,Other,3578,17890,12040,25 Aug 2020
99,Kurnool,Kurnool,Ajwan,Other,3460,17299,10899,14 Aug 2020
100,Kurnool,Kurnool,Ajwan,Other,3186,15926,10812,11 Aug 2020
101,Kurnool,Kurnool,Ajwan,Other,3512,16612,13868,07 Jul 2020
102,Kurnool,Kurnool,Ajwan,Other,4169,17599,13300,03 Jul 2020
103,Kurnool,Kurnool,Ajwan,Other,3454,17266,11840,30 Jun 2020
104,Kurnool,Kurnool,Ajwan,Other,3800,17676,11300,26 Jun 2020
105,Kurnool,Kurnool,Ajwan,Other,3204,16016,11400,23 Jun 2020
106,Kurnool,Kurnool,Ajwan,Other,5099,16282,10599,19 Jun 2020
107,Kurnool,Kurnool,Ajwan,Other,3400,17000,11099,16 Jun 2020
108,Kurnool,Kurnool,Ajwan,Other,5500,17699,11240,12 Jun 2020
109,Kurnool,Kurnool,Ajwan,Other,5299,17892,11000,09 Jun 2020
110,Kurnool,Kurnool,Ajwan,Other,3500,16699,10699,05 Jun 2020
111,Kurnool,Kurnool,Ajwan,Other,3738,18686,10719,02 Jun 2020
112,Kurnool,Kurnool,Ajwan,Other,3116,15580,11200,29 May 2020
113,Kurnool,Kurnool,Ajwan,Other,3923,19612,10642,28 Feb 2020
114,Kurnool,Kurnool,Ajwan,Other,4289,19898,10792,27 Feb 2020
115,Kurnool,Kurnool,Ajwan,Other,3883,19412,10300,26 Feb 2020
116,Kurnool,Kurnool,Ajwan,Other,4000,18186,10770,25 Feb 2020
117,Kurnool,Kurnool,Ajwan,Other,4063,20313,10099,24 Feb 2020
118,Kurnool,Kurnool,Ajwan,Other,3852,19260,10388,19 Feb 2020
119,Kurnool,Kurnool,Ajwan,Other,5000,18496,9176,18 Feb 2020
120,Kurnool,Kurnool,Ajwan,Other,3733,18665,9696,14 Feb 2020
121,Kurnool,Kurnool,Ajwan,Other,3737,18684,10098,12 Feb 2020
122,Kurnool,Kurnool,Ajwan,Other,4120,20599,10499,10 Feb 2020
123,Kurnool,Kurnool,Ajwan,Other,4200,21000,10866,07 Feb 2020
124,Kurnool,Kurnool,Ajwan,Other,3954,19766,10686,06 Feb 2020
125,Kurnool,Kurnool,Ajwan,Other,4111,20555,10612,05 Feb 2020
126,Kurnool,Kurnool,Ajwan,Other,4060,20300,10200,04 Feb 2020
127,Kurnool,Kurnool,Ajwan,Other,4004,20016,13866,03 Feb 2020
128,Kurnool,Kurnool,Ajwan,Other,4012,19018,10880,31 Jan 2020
129,Kurnool,Kurnool,Ajwan,Other,3842,19207,10412,30 Jan 2020
130,Kurnool,Kurnool,Ajwan,Other,3858,19286,11599,29 Jan 2020
131,Kurnool,Kurnool,Ajwan,Other,3657,18282,11440,28 Jan 2020
132,Kurnool,Kurnool,Ajwan,Other,3723,18612,12188,27 Jan 2020
133,Kurnool,Kurnool,Ajwan,Other,3652,18260,12012,23 Jan 2020
134,Kurnool,Kurnool,Ajwan,Other,4200,18018,11040,22 Jan 2020
135,Kurnool,Kurnool,Ajwan,Other,5199,17332,12000,21 Jan 2020
136,Kurnool,Kurnool,Ajwan,Other,3262,16308,11699,20 Jan 2020
137,Kurnool,Kurnool,Ajwan,Other,6099,15640,11699,17 Jan 2020
